Predicting Loan Defaults
…
false negatives (Bottom-left): We predicted loan Fully paid, but it was actually Charged off. (Also known as a Type II error.) - 17%

The results show that 67% of the predicted observations are true positive and only 7% are true negative. The model has larger type two error, 17% of predicted observations are false positive in which the model predicts borrower not to fully pay the loan but they actually paid off. And the model has type I error - false negative 8% - in which it predicts borrower to fully pay the loan but they didnt.

Our model is fairly poor in predicting who wont pay off the loan.

4.4.6 p-values

p_value <- tidy(log_reg_model_2)
p_value %>% 
  select(term, p.value) %>% 
  arrange(p.value)

## # A tibble: 24 x 2
##    term                         p.value
##    <chr>                          <dbl>
##  1 purposesmall_business       3.95e-42
##  2 term_36TRUE                 5.81e-38
##  3 inq_last_6mthsTRUE          1.39e-19
##  4 int_rate_pct                6.88e-16
##  5 pub_rec_bankruptciesunknown 8.53e-16
##  6 annual_inc                  2.53e-15
##  7 purposeother                2.48e-14
##  8 install_mth_pct             1.59e-11
##  9 fico_range_avg              4.50e- 8
## 10 emp_lengthunknown           6.12e- 8
## #  with 14 more rows
…
